926569 770474 525
707224 634377 504
940290 215045 525
275903 188535 443
912418 524741 525
606772 452697 470
190156 118889 383
966325 881819 507
451493 205073 449
557786 751017 509
309564 239036 407
575724 269597 470
505255 504400 320
890192 871981 445
339368 445332 449
510508 322613 449
40562 588749 470
809721 193214 509
121249 404985 443
943608 346334 525
850210 746943 525
721824 61221 509
228729 694081 509
176687 890621 525
740470 245490 509
339639 496169 449
23436 613864 470
452952 857325 525
875079 300826 525
702458 31091 509
634880 633508 323
871743 177925 525
370109 425447 449
846854 835032 525
789265 361190 509
280365 308420 389
556377 12695 470
42083 115238 354
869548 870612 357
839520 937220 476
363379 714935 509
896326 943902 507
557829 336760 470
842787 937672 476
992061 791948 525
339589 495569 449
518732 881233 525
114945 317086 443
373209 753587 509
230264 329906 443
890767 368059 525
454556 113592 449
395506 808767 509
356544 620502 470
512583 21252 470
401343 649056 509
450764 642170 509
662570 985594 525
100640 243751 443
967925 912065 507
676671 444760 509
971508 37201 525
900016 842799 445
209051 214237 373
518065 711909 509
276548 941604 525
797498 491490 509
211066 62798 383
844466 944086 507
243278 924366 525
370469 535339 470
552852 845637 525
992494 846055 507
440363 980417 525
954919 51953 525
69506 519196 470
638441 386056 509
419624 973345 525
788962 795499 437
337721 732300 509
960176 285894 525
408907 167230 443
69244 334676 443
593728 731997 509
468994 358861 449
742207 331990 509
753194 664233 504
170157 44970 383
333512 118212 443
37207 884336 525
380816 215536 443
84774 717821 509
67325 399855 443
143348 832974 509
166060 237533 443
900553 370475 525
728042 238549 509
621623 690502 509
135457 311850 443
254320 192237 443
872217 380764 525
184547 672791 509
495211 460127 444
462690 930829 525
906992 261259 525
225987 484007 449
89514 519013 470
528520 372047 470
826842 482067 509
502340 543625 470
148223 509883 449
939613 373308 525
590161 338171 470
959476 966650 414
657968 947763 525
887608 472422 525
992491 247821 525
123719 959796 525
579189 969133 525
138865 833308 509
857236 57558 525
161595 358100 443
125560 308735 443
559910 319968 470
202598 773903 509
653409 478282 509
184288 593124 470
484067 683051 509
304995 997706 525
636329 273846 509
414610 290200 449
650286 747777 504
620131 344925 470
809807 742404 468
15794 311259 443
107526 433139 449
238500 719803 509
777050 278935 509
934587 811039 525
753929 884628 525
316137 624484 470
188007 647101 509
196522 140485 383
518465 250690 470
507330 803847 509
357662 96098 443
750135 309957 509
201682 864018 525
208903 733942 509
976657 600942 525
286934 900290 525
462315 978761 525
896768 79336 525
257907 80557 443
638209 265360 509
699301 898860 525
523587 956487 525
994317 698363 525
89944 839588 525
984078 70989 525
987539 382748 525
13987 818569 509
566239 610130 434
641183 77026 509
893930 969652 507
718813 798860 468
89094 853735 525
235539 309782 407
521120 685130 509
289464 286481 389
876720 311659 525
581097 680761 509
145120 773608 509
15081 72575 340
900195 761676 525
624956 160106 470
659700 482 509
920387 897661 476
876864 23822 525
727090 833819 468
533576 487219 470
241292 399171 441
983819 447169 525
410732 376028 449
947767 859374 507
862189 966088 507
241321 384976 441
224966 703214 509
219109 621169 470
191750 552510 470
333112 362617 441
322467 117826 443
944062 22806 525
9647 568735 470
617251 822326 509
240064 96599 443
90407 139783 354
956008 86606 525
890651 445944 525
637139 528719 509
136958 591011 470
308487 329809 384
42630 171018 383
258974 302407 407
160689 456379 449
284597 144610 443
773770 633782 504
377905 368145 423
708398 299765 509
663091 949979 525
626656 191285 509
327734 213553 443
84117 370647 443
296973 786529 509
573528 808138 509
162673 630686 509
580643 151405 470
447474 462286 444
350561 58501 443
670527 533391 509
364338 439200 449
595493 658790 509
621727 378188 470
423429 368839 449
23146 436058 449
944389 188420 525
147318 138761 375
518846 823115 509
716073 189897 509
